Division,WeightClassKg,Place,Name,Team,BodyweightKg,Best3SquatKg,Best3BenchKg,Best3DeadliftKg,TotalKg,Equipment,Event,Sex
Boys,51.71,1,Justin Dowdy,Wills Point,50.98,149.69,92.99,158.76,401.43,Single-ply,SBD,M
Boys,51.71,2,Trey Arras,Texarkana Liberty-Eylau,51.07,129.27,81.65,154.22,365.14,Single-ply,SBD,M
Boys,51.71,3,Adrian Garcia,Diboll,51.53,97.52,86.18,127.01,310.71,Single-ply,SBD,M
Boys,55.79,4,Dylan King,Kaufman,51.94,108.86,63.5,131.54,303.91,Single-ply,SBD,M
Boys,51.71,5,Will McCown,Bullard,49.62,120.2,54.43,117.93,292.57,Single-ply,SBD,M
Boys,51.71,6,Hiro Salazar,Center,50.8,111.13,54.43,124.74,290.3,Single-ply,SBD,M
Boys,55.79,7,Carl Shehane,Quinlan Ford,51.89,113.4,45.36,95.25,254.01,Single-ply,SBD,M
Boys,51.71,8,Phillip Cross,Huntington,50.44,95.25,45.36,106.59,247.21,Single-ply,SBD,M
Boys,51.71,9,Sonny Simons,Huntington,48.99,65.77,45.36,97.52,208.65,Single-ply,SBD,M
Boys,51.71,DQ,Matthew Thompson #6,Palestine,45.72,,,,,Single-ply,SBD,M
Boys,55.79,1,Miguel Hernandez,Emory Rains,54.16,181.44,92.99,161.03,435.45,Single-ply,SBD,M
Boys,55.79,2,Omar Hernandez,Athens,53.89,129.27,83.91,156.49,369.68,Single-ply,SBD,M
Boys,55.79,3,Josh Bolton,Paris North Lamar,53.34,147.42,68.04,145.15,360.61,Single-ply,SBD,M
Boys,55.79,4,Arturo Jimenez,Ferris,54.43,138.35,72.57,140.61,351.53,Single-ply,SBD,M
Boys,55.79,5,Keilinn Shelton,Carthage,53.8,138.35,74.84,117.93,331.12,Single-ply,SBD,M
Boys,55.79,6,Nate Burden,Atlanta,54.7,117.93,58.97,149.69,326.59,Single-ply,SBD,M
Boys,55.79,7,Demetrius Hernandez,Diboll,53.98,106.59,72.57,145.15,324.32,Single-ply,SBD,M
Boys,55.79,8,Brendan Stanley,Center,55.52,102.06,61.23,138.35,301.64,Single-ply,SBD,M
Boys,55.79,9,Bailey Kurtz,Bullard,55.43,102.06,63.5,131.54,297.1,Single-ply,SBD,M
Boys,55.79,DQ,Daniel Rodriguez,Center,55.7,,,,,Single-ply,SBD,M
Boys,59.87,1,Jose Rodriguez,Athens,58.69,192.78,138.35,183.7,514.83,Single-ply,SBD,M
Boys,59.87,2,Isaiah Payne,Crandall,57.7,183.7,86.18,199.58,469.47,Single-ply,SBD,M
Boys,59.87,3,Leo Rosales,Rusk,58.42,174.63,102.06,174.63,451.32,Single-ply,SBD,M
Boys,59.87,4,Cesar Colunga,Emory Rains,59.78,161.03,86.18,174.63,421.84,Single-ply,SBD,M
Boys,59.87,5,Kyler Cooper,Texarkana Pleasant Grove,59.33,151.95,86.18,167.83,405.97,Single-ply,SBD,M
Boys,67.13,6,Juston Clough,Carthage,60.06,142.88,77.11,179.17,399.16,Single-ply,SBD,M
Boys,67.13,7,Josh Johnson,Paris North Lamar,60.1,147.42,79.38,165.56,392.36,Single-ply,SBD,M
Boys,67.13,8,Hunter Roberts,Atlanta,60.1,131.54,88.45,158.76,378.75,Single-ply,SBD,M
Boys,59.87,9,Jackson Kennedy,Texarkana Pleasant Grove,58.97,124.74,104.33,136.08,365.14,Single-ply,SBD,M
Boys,59.87,DQ,Robert Thompson,Palestine,59.69,,,,,Single-ply,SBD,M
Boys,67.13,1,Matthew Solomon,Texarkana Liberty-Eylau,66.32,229.06,129.27,206.38,564.72,Single-ply,SBD,M
Boys,67.13,2,X-Zavius Gray,Paris,66.5,204.12,111.13,201.85,517.1,Single-ply,SBD,M
Boys,74.84,3,JaCarlos Hall,Center,67.31,206.38,113.4,188.24,508.02,Single-ply,SBD,M
Boys,67.13,4,Jared Scott #2,Texarkana Pleasant Grove,65.5,192.78,102.06,197.31,492.15,Single-ply,SBD,M
Boys,67.13,5,Alberto Alvarado,Brownsboro,66.77,192.78,83.91,201.85,478.54,Single-ply,SBD,M
Boys,67.13,6,Adrien Higginbothem,Mabank,65.5,185.97,97.52,188.24,471.74,Single-ply,SBD,M
Boys,67.13,7,Funzell Coleman,Atlanta,67.04,174.63,99.79,197.31,471.74,Single-ply,SBD,M
Boys,67.13,8,Rajuan Crabtree,Texarkana Liberty-Eylau,63.32,165.56,106.59,185.97,458.13,Single-ply,SBD,M
Boys,67.13,9,Devin Eggins,Fairfield,65.5,174.63,102.06,174.63,451.32,Single-ply,SBD,M
Boys,67.13,10,Ethan Wagner,Texarkana Pleasant Grove,63.96,170.1,99.79,172.37,442.25,Single-ply,SBD,M
Boys,67.13,11,Andre Torres,Ferris,62.69,163.29,86.18,174.63,424.11,Single-ply,SBD,M
Boys,74.84,1,Colt Conway,Mabank,74.75,231.33,124.74,210.92,566.99,Single-ply,SBD,M
Boys,74.84,2,Matt Hahn,Texarkana Pleasant Grove,69.76,199.58,113.4,226.8,539.77,Single-ply,SBD,M
Boys,74.84,3,Josh Lemus,Van,73.57,217.72,127.01,192.78,537.51,Single-ply,SBD,M
Boys,74.84,4,Charles Willman,Quinlan Ford,73.84,183.7,140.61,176.9,501.22,Single-ply,SBD,M
Boys,74.84,5,Matt Mondy,Huntington,74.48,197.31,111.13,190.51,498.95,Single-ply,SBD,M
Boys,74.84,6,Preston Bozeman,Huntington,73.39,176.9,102.06,215.46,494.42,Single-ply,SBD,M
Boys,74.84,7,Toby Thatcher,Bullard,70.58,188.24,117.93,183.7,489.88,Single-ply,SBD,M
Boys,74.84,8,Brennan Burnett,Huntington,68.76,170.1,104.33,208.65,483.08,Single-ply,SBD,M
Boys,74.84,9,Calvin Olsen,Quinlan Ford,74.57,195.04,99.79,185.97,480.81,Single-ply,SBD,M
Boys,74.84,10,Lamont Byrd,Texarkana Liberty-Eylau,74.03,174.63,111.13,188.24,474,Single-ply,SBD,M
Boys,82.1,1,Alvin Battle,Atlanta,77.93,244.94,149.69,244.94,639.57,Single-ply,SBD,M
Boys,82.1,2,Zanoah Arnold,Texarkana Liberty-Eylau,78.56,231.33,124.74,240.4,596.47,Single-ply,SBD,M
Boys,82.1,3,Brett Mallon,Crandall,81.1,206.38,131.54,229.06,566.99,Single-ply,SBD,M
Boys,82.1,4,Temoc Berry,Van,79.92,195.04,142.88,215.46,553.38,Single-ply,SBD,M
Boys,82.1,5,Witt Dockens,Center,80.65,213.19,117.93,201.85,532.97,Single-ply,SBD,M
Boys,82.1,6,Chase Perry,Paris North Lamar,78.11,195.04,120.2,195.04,510.29,Single-ply,SBD,M
Boys,82.1,7,Shelton Haskins,Atlanta,80.2,197.31,106.59,197.31,501.22,Single-ply,SBD,M
Boys,82.1,DQ,Chris Bradford,Bullard,77.93,,,,,Single-ply,SBD,M
Boys,82.1,DQ,Logan Thompson,Canton,81.37,,,,,Single-ply,SBD,M
Boys,89.81,1,Tyler Rudolph,Kaufman,87.72,249.48,113.4,240.4,603.28,Single-ply,SBD,M
Boys,89.81,2,DeCorian Horton,Tyler Chapel Hill,86.18,215.46,133.81,235.87,585.13,Single-ply,SBD,M
Boys,89.81,3,Tanner Evett,Huntington,88.45,204.12,154.22,226.8,585.13,Single-ply,SBD,M
Boys,89.81,4,Brandon Melton,Quinlan Ford,89.18,244.94,124.74,213.19,582.87,Single-ply,SBD,M
Boys,89.81,5,Zane Koskelin,Mabank,86.73,231.33,129.27,210.92,571.53,Single-ply,SBD,M
Boys,89.81,6,Ke'Mon Freeman,Texarkana Liberty-Eylau,89.45,215.46,138.35,206.38,560.19,Single-ply,SBD,M
Boys,89.81,7,Nick Cooper,Atlanta,82.64,226.8,122.47,208.65,557.92,Single-ply,SBD,M
Boys,89.81,8,Richard Mainor,Texarkana Liberty-Eylau,89.45,208.65,131.54,217.72,557.92,Single-ply,SBD,M
Boys,89.81,9,Eli Britt,Emory Rains,88.18,231.33,129.27,195.04,555.65,Single-ply,SBD,M
Boys,89.81,DQ,Israel Delgadillo,Ferris,88.72,226.8,,,,Single-ply,SBD,M
Boys,99.79,1,Delenis Garrett,Tyler Chapel Hill,97.07,272.16,151.95,233.6,657.71,Single-ply,SBD,M
Boys,99.79,2,Reggie King,Tyler Chapel Hill,98.25,267.62,172.37,217.72,657.71,Single-ply,SBD,M
Boys,99.79,3,Taner Renfro,Quinlan Ford,98.61,283.5,142.88,231.33,657.71,Single-ply,SBD,M
Boys,99.79,4,Logan Fuller,Athens,93.71,272.16,149.69,208.65,630.49,Single-ply,SBD,M
Boys,99.79,5,Caleb Hallford,Bullard,97.07,244.94,165.56,215.46,625.96,Single-ply,SBD,M
Boys,99.79,6,Cole Beddingfield,Fairfield,98.25,240.4,156.49,208.65,605.55,Single-ply,SBD,M
Boys,99.79,7,Nick Wright #2,Brownsboro,97.25,226.8,140.61,206.38,573.79,Single-ply,SBD,M
Boys,99.79,8,David Brown,Crandall,96.43,217.72,124.74,215.46,557.92,Single-ply,SBD,M
Boys,99.79,9,Noah Bush,Athens,93.71,197.31,124.74,204.12,526.17,Single-ply,SBD,M
Boys,99.79,DQ,Kendall Alexander,Paris,95.89,249.48,140.61,,,Single-ply,SBD,M
Boys,109.77,1,Hunter Phelps,Bullard,101.88,340.19,174.63,258.55,773.37,Single-ply,SBD,M
Boys,109.77,2,DeVincent Hoyt,Center,106.78,256.28,172.37,251.74,680.39,Single-ply,SBD,M
Boys,109.77,3,Dennis Coleman,Paris,109.04,272.16,142.88,265.35,680.39,Single-ply,SBD,M
Boys,109.77,4,Cole Davis,Atlanta,107.95,249.48,158.76,254.01,662.24,Single-ply,SBD,M
Boys,109.77,5,Tyler Wilbanks,Rusk,103.42,272.16,145.15,197.31,614.62,Single-ply,SBD,M
Boys,109.77,6,Zach Gray,Wills Point,107.95,240.4,142.88,204.12,587.4,Single-ply,SBD,M
Boys,109.77,7,Andrew Dawson,Tyler Chapel Hill,107.5,238.14,129.27,215.46,582.87,Single-ply,SBD,M
Boys,109.77,8,Jack White,Paris North Lamar,107.77,233.6,136.08,204.12,573.79,Single-ply,SBD,M
Boys,109.77,9,Keyunta Kinney,Atlanta,104.05,213.19,122.47,222.26,557.92,Single-ply,SBD,M
Boys,109.77,DQ,Jamal Wheeler,Gilmer,106.41,,,,,Single-ply,SBD,M
Boys,124.74,1,Dorian Schutt,Bullard,122.74,260.82,154.22,260.82,675.85,Single-ply,SBD,M
Boys,124.74,2,Josh Tillis,Palestine,116.94,238.14,195.04,233.6,666.78,Single-ply,SBD,M
Boys,124.74,3,Chad Walker #2,Athens,117.12,233.6,167.83,222.26,623.69,Single-ply,SBD,M
Boys,124.74,4,Jake Allen,Bullard,117.75,217.72,156.49,235.87,610.08,Single-ply,SBD,M
Boys,124.74,5,Daniel Zarzoza,Diboll,120.11,249.48,131.54,226.8,607.81,Single-ply,SBD,M
Boys,124.74,6,JW McFarland,Bullard,120.47,265.35,142.88,199.58,607.81,Single-ply,SBD,M
Boys,124.74,7,Kalean Whitworth,Diboll,110.31,233.6,142.88,226.8,603.28,Single-ply,SBD,M
Boys,124.74,8,Frank Smith,Texarkana Liberty-Eylau,123.56,240.4,108.86,247.21,596.47,Single-ply,SBD,M
Boys,124.74,9,Denzel Moore,Center,114.76,238.14,127.01,215.46,580.6,Single-ply,SBD,M
Boys,124.74,DQ,Gonzalo Arreguin,Tyler Chapel Hill,110.95,,,,,Single-ply,SBD,M
Boys,124.74+,1,Wyatt Santos,Van,152.68,294.84,181.44,251.74,728.02,Single-ply,SBD,M
Boys,124.74+,2,Qurdale Huff,Paris,171.37,299.37,167.83,251.74,718.94,Single-ply,SBD,M
Boys,124.74+,3,Bryce Hoffman,Rusk,128.09,274.42,151.95,219.99,646.37,Single-ply,SBD,M
Boys,124.74+,4,Tyler Trussell,Athens,127.19,240.4,163.29,219.99,623.69,Single-ply,SBD,M
Boys,124.74+,5,Keenan Ivory,Canton,150.5,265.35,131.54,222.26,619.15,Single-ply,SBD,M
Boys,124.74+,6,Josh West,Athens,136.71,244.94,142.88,226.8,614.62,Single-ply,SBD,M
Boys,124.74+,7,Tristan Fritch,Van,171.91,249.48,151.95,190.51,591.94,Single-ply,SBD,M
Boys,124.74+,8,Kedrick Henderson,Carthage,137.17,219.99,136.08,206.38,562.45,Single-ply,SBD,M
Boys,124.74+,9,Scott Sparks,Longview Spring Hill,141.25,213.19,131.54,190.51,535.24,Single-ply,SBD,M
Boys,124.74+,DQ,Pat Cross,Palestine,128,,,,,Single-ply,SBD,M
