Name,Sex,WeightClassKg,Division,Best3SquatKg,Best3BenchKg,Best3DeadliftKg,TotalKg,Event,Equipment,Place
Alison Stemgrim,F,56,F-T3,105,52.5,92.5,250,SBD,Single-ply,1
Oriah Sage,F,56,F-M1a,60,52.5,82.5,195,SBD,Single-ply,1
Shawn Warren,F,56,F-M1a,47.5,37.5,72.5,157.5,SBD,Single-ply,2
Jennifer Rey-Gaudreau,F,60,F-O,145,90,167.5,402.5,SBD,Single-ply,1
Barbara Wazel,F,67.5,F-M1a,75,50,97.5,222.5,SBD,Single-ply,1
Holly Geersen,F,75,F-O,137.5,110,157.5,405,SBD,Single-ply,1
Michaela Gertner,F,75,F-T2,107.5,62.5,117.5,287.5,SBD,Single-ply,1
Ryan Boh,M,44,M-Y2,65,32.5,82.5,180,SBD,Single-ply,1
Andrew Wax,M,48,M-Y2,70,40,97.5,207.5,SBD,Single-ply,1
Alex Weisigier,M,48,M-Y1,70,32.5,90,192.5,SBD,Single-ply,1
Ross Maestas,M,52,M-T1,107.5,55,122.5,285,SBD,Single-ply,1
Joey Rein,M,52,M-T1,97.5,52.5,115,265,SBD,Single-ply,2
Mike Carter,M,52,M-Y2,72.5,42.5,90,205,SBD,Single-ply,1
Nathan McCabe,M,52,M-Y2,72.5,37.5,85,195,SBD,Single-ply,2
Tom Costigan,M,52,M-T1,57.5,40,85,182.5,SBD,Single-ply,3
Lalo Pruneda,M,56,M-T1,110,65,120,295,SBD,Single-ply,1
Keith McClung,M,56,M-T1,100,57.5,117.5,275,SBD,Single-ply,2
Michael Hansen,M,56,M-T2,105,50,125,280,SBD,Single-ply,1
Josh Rein,M,60,M-T3,132.5,75,165,372.5,SBD,Single-ply,1
Joe Giorno,M,60,M-T3,130,85,150,365,SBD,Single-ply,2
Vince Scavuzzo,M,60,M-T1,110,65,117.5,292.5,SBD,Single-ply,1
Jake Posey,M,60,M-T1,85,40,102.5,227.5,SBD,Single-ply,2
Brandon Cooper,M,67.5,M-C,190,100,197.5,487.5,SBD,Single-ply,1
Bryan Hawkins,M,67.5,M-T2,182.5,110,182.5,475,SBD,Single-ply,1
Jon Bosunga,M,67.5,M-T2,165,97.5,170,432.5,SBD,Single-ply,2
Randy Theisen,M,67.5,M-T1,127.5,97.5,152.5,377.5,SBD,Single-ply,1
Seb Estenssoro,M,67.5,M-T2,90,52.5,125,267.5,SBD,Single-ply,3
Dan Weisigier,M,67.5,M-T1,95,50,100,245,SBD,Single-ply,2
Luke Hanifen,M,75,M-Jr,217.5,197.5,220,635,SBD,Single-ply,1
Brett Del Balso,M,75,M-C,160,100,187.5,447.5,SBD,Single-ply,1
Joey Polakoviic,M,75,M-T1,160,87.5,190,437.5,SBD,Single-ply,1
Fy Pruneda,M,75,M-T2,142.5,77.5,192.5,412.5,SBD,Single-ply,1
Sean Devlyn,M,75,M-T1,90,72.5,135,297.5,SBD,Single-ply,2
Jackson Medina,M,75,M-T1,105,57.5,127.5,290,SBD,Single-ply,3
Andrew Cross,M,75,M-T1,107.5,57.5,120,285,SBD,Single-ply,4
Brendan Beikmann,M,82.5,M-Jr,277.5,145,265,687.5,SBD,Single-ply,1
Shane Oakley,M,82.5,M-T3,200,115,250,565,SBD,Single-ply,1
Jerimiah Peterson,M,82.5,M-T3,137.5,125,157.5,420,SBD,Single-ply,2
Jeffrey Lawrence,M,82.5,M-T1,107.5,65,150,322.5,SBD,Single-ply,1
Matt Johnson,M,90,M-T2,175,105,175,455,SBD,Single-ply,1
Dane Kelley,M,100,M-T3,227.5,152.5,235,615,SBD,Single-ply,1
Josh Zuercher,M,100,M-Y2,150,100,150,400,SBD,Single-ply,1
Ben Schwake,M,110,M-T3,210,122.5,242.5,575,SBD,Single-ply,1
Justin Walters,M,110,M-T2,190,152.5,230,572.5,SBD,Single-ply,1
Michael Dionisio,M,110,M-T3,215,142.5,202.5,560,SBD,Single-ply,2
Matt Littlefield,M,110,M-T1,150,107.5,160,417.5,SBD,Single-ply,1
Michael Tuchscherer,M,125,M-C,237.5,192.5,307.5,737.5,SBD,Single-ply,1
Bob Beamer,M,67.5,M-M3a,165,125,192.5,482.5,SBD,Single-ply,1
Kinney Leins,M,67.5,M-M1a,155,102.5,190,447.5,SBD,Single-ply,1
Mark Sigala,M,75,M-M1a,242.5,155,262.5,660,SBD,Single-ply,1
Luke Hanifen,M,75,M-O,217.5,197.5,220,635,SBD,Single-ply,1
Benjamin Rowe,M,90,M-O,275,165,245,685,SBD,Single-ply,1
Richard Martinez,M,90,M-M1a,182.5,160,197.5,540,SBD,Single-ply,1
Steve Harms,M,90,M-M2a,190,147.5,175,512.5,SBD,Single-ply,1
Robert Keele,M,90,M-M1b,155,105,200,460,SBD,Single-ply,1
Bobbt Wischkowski,M,90,M-M3a,160,120,175,455,SBD,Single-ply,1
Alonzo Clemons,M,90,M-M1b,65,55,150,270,SBD,Single-ply,2
Brian Rudululovich,M,100,M-O,320,185,295,800,SBD,Single-ply,1
Scott Roberts,M,100,M-O,305,197.5,275,777.5,SBD,Single-ply,2
Scott Roberts,M,100,M-M1b,305,197.5,275,777.5,SBD,Single-ply,1
Brian Keogh,M,100,M-O,245,175,260,680,SBD,Single-ply,3
Steve Nelson,M,100,M-M1b,227.5,142.5,230,600,SBD,Single-ply,2
Jeff Miller,M,100,M-M1a,185,162.5,185,532.5,SBD,Single-ply,1
Armando Pares,M,100,M-M1b,195,132.5,195,522.5,SBD,Single-ply,3
Tom Howell,M,100,M-O,137.5,90,152.5,380,SBD,Single-ply,4
Larry Castro,M,110,M-M2b,195,110,200,505,SBD,Single-ply,1
Jason Wilson,M,125,M-O,250,165,250,665,SBD,Single-ply,1
Mark Samson,M,125,M-M1b,227.5,142.5,212.5,582.5,SBD,Single-ply,1
Tom Howell,M,125,M-O,137.5,90,152.5,380,SBD,Single-ply,2
Ben Peterson,M,56,M-T1,,75,,75,B,Single-ply,1
Bill Shalkowski,M,90,M-M1a,,227.5,,227.5,B,Single-ply,1
Fred Prutch,M,90,M-M1a,,155,,155,B,Single-ply,2
Jerry Handley,M,90,M-M2a,,95,,95,B,Single-ply,1
Joe Enenbach,M,110,M-M2b,,142.5,,142.5,B,Single-ply,1
Charles Dodggett,M,110,M-M4a,,135,,135,B,Single-ply,1
Gary Gertner,M,125+,M-M1b,,242.5,,242.5,B,Single-ply,1
John McIntyre,M,125+,M-M3b,,182.5,,182.5,B,Single-ply,1
